36830,7.97
36860,7.39
36890,7.06
36922,5.916666667
36950,5.973333333
36981,7.12
37011,7.45
37042,6.76
37072,6.243333333
37103,5.993333333
37134,5.456666667
37163,4.903333333
37195,6.126666667
37225,6.35
37256,6.73
37287,6.756666667
37315,6.463333333
37345,7.035
37376,6.916666667
37407,6.533333333
37436,5.99
37468,6.046666667
37498,5.9
37529,5.646666667
37560,5.63
37589,5.616666667
37621,5.353333333
37651,4.923333333
37680,4.78
37711,4.76
37741,4.61
37771,4.253333333
37802,4.27
37833,4.99
37862,4.73
37894,4.35
37925,4.78
37953,5.166666667
37986,5.053333333
38016,5.24
38044,5.076666667
38077,4.81
38107,4.82
38138,4.513333333
38168,4.53
38198,4.32
38230,3.746666667
38260,3.65
38289,3.55
38321,3.45
38352,3.383333333
38383,4.32
38411,4.293333333
38442,4.16
38471,3.993333333
38503,3.81
38533,4.25
38562,4.546666667
38595,4.453333333
38625,4.826666667
38656,5.213333333
38686,5.376666667
38716,5.356666667
38748,5.15
38776,5.05
38807,5.13
38835,4.98
38867,4.87
38898,5.03
38929,4.93
38960,4.82
38989,4.6
39021,4.78
39051,4.873333333
39080,4.99
39113,5.03
39141,4.88
39171,4.8
39202,5.063333333
39233,5.2
39262,5.38
39294,5.28
39325,5.47
39353,5.53
39386,5.48
39416,5.82
39447,5.76
39478,5.11
39507,5.08
39538,5.12
39568,4.96
39598,5.54
39629,5.98
39660,5.86
39689,5.86
39721,5.743333333
39752,4.723333333
39780,5.033333333
39813,3.77
39843,4.1
39871,4.573333333
39903,4.686666667
39933,4.17
39962,4.67
39994,4.64
40025,4.77
40056,4.903333333
40086,4.81
40116,4.94
40147,4.61
40178,4.923333333
40207,4.82
40235,4.62
40268,4.51
40298,4.27
40329,4.36
40359,4.44
40389,4.38
40421,4
40451,3.71
40480,3.863333333
40512,3.88
40543,4.08
40574,4.41
40602,4.28
40633,4.11
40662,4.1
40694,3.87
40724,4.01
40753,4.02
40786,3.62
40816,3.666666667
40847,3.63
40877,3.486666667
40907,3.46
40939,3.49
40968,3.55
40998,3.69
41029,3.56
41060,3.43
41089,3.42
41121,2.97
41152,2.85
41180,2.86
41213,2.84
41243,2.91
41274,2.97
41305,2.89
41333,2.74
41362,2.58
41394,2.55
41425,2.9
41453,3.14
41486,3.2
41516,3.16
41547,3.05
41578,3.049333333
41607,3.345
41639,3.23
41668,3.225
41698,3.125666667
41729,3.155
41759,3.165
41789,3.035
41820,2.880666667
41851,2.76
41880,2.735
41912,2.495
41943,2.295
41971,2.23
42004,2.285
42034,2.047
42062,2.107
42094,1.802
42124,2.05
42153,1.915
42185,2.07
42216,2.032
42247,1.927
42277,1.722
42307,1.795
42338,1.962
42369,1.82
42398,1.7
42429,1.555
42460,1.552
42489,1.55
42521,1.582
42551,1.297
42580,1.235
42613,1.357
42643,1.27
42674,1.497
42704,1.910666667
42734,1.807
42766,1.85
42794,1.852
42825,1.852
42853,1.862
42886,1.89
42916,1.902
42947,1.925
42978,1.967
43007,2.077
43039,2.402
43069,2.262
43098,2.347
43131,2.566333333
43159,2.517
43189,2.425
43220,2.49
43251,2.477
43266,2.472
